1 10 20
100 200 125
201 210 89
900 1000 174
9978 9952 167
5915 5463 236
6553 6553 138
7026 4943 262
6496 922 262
9017 414 262
3296 6903 262
7562 5073 262
3510 5156 238
2380 2397 121
7585 481 262
6056 1084 238
1623 5813 238
426 6085 238
2943 8842 262
5950 8097 262
9809 4868 262
3240 3204 168
7009 3985 262
8344 9685 260
6392 5034 262
4011 417 238
8153 4058 262
1532 5076 238
6095 4711 236
4945 8121 262
1613 6133 238
6058 2004 238
1699 6917 262
5622 3647 238
8135 2555 262
5858 4843 236
6405 3489 262
9722 9323 198
3744 2238 238
6762 677 262
5596 1498 238
5368 4564 210
6164 2562 238
1511 7247 262
4902 6821 262
4781 5574 236
3014 592 217
392 4573 238
5007 3016 238
6928 2072 262
1087 4736 238
4064 8325 262
7101 3723 262
7446 210 262
4648 6452 262
575 918 179
3351 2343 217
2850 2870 173
704 7984 262
9608 5951 262
9449 8466 260
7984 3918 262
7660 7171 239
12 874 179
3510 9653 262
4236 7397 262
5380 1043 238
4757 7027 262
4306 1959 238
214 1566 182
4094 7563 262
1132 6224 262
1055 2996 217
5216 8155 262
8095 252 262
3664 403 217
6638 3277 262
4434 4130 215
868 9838 262
9559 2480 262
5420 3017 238
4470 2911 238
3663 8483 262
6539 3388 262
3780 9835 262
4725 3949 215
3768 4608 215
5453 8242 262
1466 1014 182
7374 4277 262
1097 9663 262
5070 7340 262
8603 8308 234
1640 9040 262
1288 5689 238
595 7397 262
5618 2952 238
2060 425 182
3936 959 238
6533 2294 262
4743 5717 236
6111 5208 236
3030 7883 262
2107 7118 262
6850 4515 262
3905 9899 262
4603 8452 262
5413 2725 238
2123 9020 262
2958 5629 238
1363 4116 238
7178 9301 260
5299 3929 215
4058 5711 236
1367 5073 238
5048 5798 236
6634 9275 260
7467 8144 252
6943 1412 262
8049 2955 262
1944 4096 238
7909 8187 252
9342 2534 262
6003 4003 236
3763 3299 238
251 1210 182
8361 5334 262
9544 3923 262
8646 1749 262
3515 2111 217
1928 8993 262
2396 3688 217
5764 1612 238
1050 5804 238
2225 6059 238
4438 3231 238
4061 6063 236
1963 1824 175
8054 4952 262
1811 345 182
8479 5643 262
9478 4822 262
3698 1879 217
8120 7722 252
2700 8765 262
9290 7957 260
5178 9739 262
511 7437 262
5055 4015 215
9669 244 262
2147 4775 238
5180 6256 262
7761 1028 262
2030 9096 262
9014 225 262
4427 8425 262
6710 2331 262
8090 1144 262
6492 377 262
9332 9108 260
6894 6303 244
9332 1609 262
8081 3062 262
5048 8280 262
3104 9168 262
5661 629 238
3119 1370 217
9875 8434 260
3683 1572 217
15 598 144
7287 7296 164
6659 9531 260
1313 9949 262
3359 1452 217
9320 1740 262
8493 1827 262
2487 1031 209
6739 5355 262
8249 5292 262
4047 961 238
2215 4678 238
7542 3293 262
7606 5802 262
1545 1098 182
3019 1549 217
3040 8104 262
2864 4406 238
7188 139 262
960 6519 262
7596 1918 262
5417 957 238
8051 6447 257
1943 6013 238
4823 5404 210
5168 1408 238
